%YAML 1.1
%TAG !u! tag:unity3d.com,2011:
--- !u!114 &11400000
MonoBehaviour:
  m_ObjectHideFlags: 0
  m_CorrespondingSourceObject: {fileID: 0}
  m_PrefabInstance: {fileID: 0}
  m_PrefabAsset: {fileID: 0}
  m_GameObject: {fileID: 0}
  m_Enabled: 1
  m_EditorHideFlags: 0
  m_Script: {fileID: 11500000, guid: f5b3f1fc634d003418ae2460d7cec317, type: 3}
  m_Name: level_config
  m_EditorClassIdentifier: 
  dataGroups:
  - level: 1
    score: 100
    shape: 1
    colorLimit: 4
    ra: 0
    score1: 0
    score2: 0
    score3: 0
    score4: 0
    score5: 0
    score6: 0
    score7: 0
    score8: 0
    score9: 0
    score10: 0
  - level: 2
    score: 200
    shape: 1
    colorLimit: 4
    ra: 0
    score1: 0
    score2: 0
    score3: 0
    score4: 0
    score5: 0
    score6: 0
    score7: 0
    score8: 0
    score9: 0
    score10: 0
  - level: 3
    score: 300
    shape: 2
    colorLimit: 4
    ra: 0
    score1: 0
    score2: 0
    score3: 0
    score4: 0
    score5: 0
    score6: 0
    score7: 0
    score8: 0
    score9: 0
    score10: 0
  - level: 4
    score: 250
    shape: 3
    colorLimit: 4
    ra: 2
    score1: 0
    score2: 0
    score3: 0
    score4: 0
    score5: 0
    score6: 0
    score7: 0
    score8: 0
    score9: 0
    score10: 0
  - level: 5
    score: 400
    shape: 4
    colorLimit: 4
    ra: 2
    score1: 0
    score2: 0
    score3: 0
    score4: 0
    score5: 0
    score6: 0
    score7: 0
    score8: 0
    score9: 0
    score10: 0
  - level: 6
    score: 350
    shape: 5
    colorLimit: 5
    ra: 1
    score1: 0
    score2: 0
    score3: 0
    score4: 0
    score5: 0
    score6: 0
    score7: 0
    score8: 0
    score9: 0
    score10: 0
  - level: 7
    score: 350
    shape: 6
    colorLimit: 4
    ra: 2
    score1: 100
    score2: 100
    score3: 150
    score4: 200
    score5: 200
    score6: 250
    score7: 0
    score8: 0
    score9: 0
    score10: 0
  - level: 8
    score: 450
    shape: 7
    colorLimit: 4
    ra: 1
    score1: 100
    score2: 150
    score3: 200
    score4: 250
    score5: 0
    score6: 0
    score7: 0
    score8: 0
    score9: 0
    score10: 0
  - level: 9
    score: 250
    shape: 1
    colorLimit: 5
    ra: 1
    score1: 0
    score2: 0
    score3: 0
    score4: 0
    score5: 0
    score6: 0
    score7: 0
    score8: 0
    score9: 0
    score10: 0
  - level: 10
    score: 500
    shape: 2
    colorLimit: 4
    ra: 1
    score1: 0
    score2: 0
    score3: 0
    score4: 0
    score5: 0
    score6: 0
    score7: 0
    score8: 0
    score9: 0
    score10: 0
  - level: 11
    score: 400
    shape: 8
    colorLimit: 4
    ra: 2
    score1: 25
    score2: 50
    score3: 75
    score4: 100
    score5: 125
    score6: 150
    score7: 175
    score8: 200
    score9: 225
    score10: 250
  - level: 12
    score: 350
    shape: 9
    colorLimit: 5
    ra: 1
    score1: 50
    score2: 75
    score3: 100
    score4: 125
    score5: 150
    score6: 175
    score7: 200
    score8: 225
    score9: 0
    score10: 0
  - level: 13
    score: 300
    shape: 10
    colorLimit: 4
    ra: 1
    score1: 25
    score2: 50
    score3: 75
    score4: 100
    score5: 125
    score6: 150
    score7: 0
    score8: 0
    score9: 0
    score10: 0
  - level: 14
    score: 300
    shape: 11
    colorLimit: 4
    ra: 1
    score1: 0
    score2: 0
    score3: 0
    score4: 0
    score5: 0
    score6: 0
    score7: 0
    score8: 0
    score9: 0
    score10: 0
  - level: 15
    score: 300
    shape: 12
    colorLimit: 5
    ra: 1
    score1: 0
    score2: 0
    score3: 0
    score4: 0
    score5: 0
    score6: 0
    score7: 0
    score8: 0
    score9: 0
    score10: 0
  - level: 16
    score: 300
    shape: 13
    colorLimit: 4
    ra: 2
    score1: 0
    score2: 0
    score3: 0
    score4: 0
    score5: 0
    score6: 0
    score7: 0
    score8: 0
    score9: 0
    score10: 0
  - level: 17
    score: 320
    shape: 14
    colorLimit: 4
    ra: 2
    score1: 100
    score2: 150
    score3: 0
    score4: 0
    score5: 0
    score6: 0
    score7: 0
    score8: 0
    score9: 0
    score10: 0
  - level: 18
    score: 350
    shape: 15
    colorLimit: 5
    ra: 2
    score1: 50
    score2: 75
    score3: 100
    score4: 125
    score5: 150
    score6: 175
    score7: 200
    score8: 225
    score9: 250
    score10: 275
  - level: 19
    score: 350
    shape: 4
    colorLimit: 5
    ra: 0
    score1: 50
    score2: 75
    score3: 100
    score4: 125
    score5: 150
    score6: 175
    score7: 250
    score8: 250
    score9: 0
    score10: 0
  - level: 20
    score: 400
    shape: 8
    colorLimit: 6
    ra: 4
    score1: 50
    score2: 100
    score3: 150
    score4: 200
    score5: 250
    score6: 300
    score7: 350
    score8: 0
    score9: 0
    score10: 0
